[
  {
    "id": 1,
    "name": "Мобільний телефон Apple iPhone 15 Pro Max 256GB ",
    "price": 52.999,
    "imageUrl": "https://content2.rozetka.com.ua/goods/images/big/364834252.jpg",
    "sku": "123456",
    "color": "Natural Titanium",
    "description": "iPhone 15 Pro Max - це новий смартфон Apple, який має неймовірно тонкий дизайн і потужну камеру на передній панелі. Він має дисплей OLED Retina Flash з розділенням 1284 x 2778 пікселів та швидкістю оновлення 120 Гц. iPhone 15 Pro Max має 6,7-дюймовий екран, який має розмір 6,7 дюйма та асистент Siri."
  },
  {
    "id": 2,
    "name": "Мобільний телефон Apple iPhone 13 128GB",
    "price": 24.999,
    "imageUrl": "https://content1.rozetka.com.ua/goods/images/big/221214139.jpg",
    "sku": "789012",
    "color": "Midnight",
    "description": "iPhone 13 - це один з найновіших смартфонів Apple, який пропонує потужний процесор A15 Bionic, вражаючий OLED-дисплей, великий акумулятор та покращену камеру."
  },
  {
    "id": 3,
    "name": "Мобільний телефон Apple iPhone 12 64GB ",
    "price": 20.999,
    "imageUrl": "https://content.rozetka.com.ua/goods/images/big/30872974.jpg",
    "sku": "345678",
    "color": "Green",
    "description": "iPhone 12 - це потужний і стильний смартфон від Apple з потужним процесором A14 Bionic, OLED-дисплеєм Super Retina XDR і подвійною камерою для чудових фотографій та відео."
  },
  {
    "id": 4,
    "name": "Мобільний телефон Samsung Galaxy S24 Ultra",
    "price": 57.999,
    "imageUrl": "https://content.rozetka.com.ua/goods/images/big/398086126.jpg",
    "sku": "901234",
    "color": "Titanium Yellow",
    "description": "Samsung Galaxy S24 Ultra - це найновіший флагманський смартфон від Samsung з потужним процесором, великим дисплеєм, камерою високої якості та багатьма іншими передовими функціями."
  },
  {
    "id": 5,
    "name": "Мобільний телефон Samsung Galaxy Flip 5 8/256GB",
    "price": 36.499,
    "imageUrl": "https://content.rozetka.com.ua/goods/images/big/353441928.jpg",
    "sku": "567890",
    "color": "Light Pink",
    "description": "Samsung Galaxy Flip 5 - це стильний складаний смартфон з потужними функціями, включаючи камеру високої якості, великий дисплей і продовжений час роботи від акумулятора."
  },
  {
    "id": 6,
    "name": "Мобільний телефон Samsung Galaxy A54 8/256GB",
    "price": 18.699,
    "imageUrl": "https://content2.rozetka.com.ua/goods/images/big/320491772.jpg",
    "sku": "112233",
    "color": "Light Violet",
    "description": "Samsung Galaxy A54 - це доступний смартфон з великим дисплеєм, продовженим часом роботи від акумулятора та камерою високої якості для чудових фотографій та відео."
  },
  {
    "id": 7,
    "name": "Мобільний телефон Samsung Galaxy Fold 5 12/256GB",
    "price": 63.699,
    "imageUrl": "https://content1.rozetka.com.ua/goods/images/big/353437654.jpg",
    "sku": "445566",
    "color": "Light Blue",
    "description": "Samsung Galaxy Fold 5 - це розкладний смартфон з потужним процесором, великим дисплеєм і вражаючою камерою для вражаючих фотографій і відео."
  },
  {
    "id": 8,
    "name": "Смартфон Xiaomi Mix Fold 2 12/512GB",
    "price": 79.283,
    "imageUrl": "https://content2.rozetka.com.ua/goods/images/big/363913842.png",
    "sku": "778899",
    "color": "Moonlight Silver",
    "description": "Xiaomi Mix Fold 2 - це потужний розкладний смартфон з вражаючим дизайном, великим дисплеєм, високоякісною камерою і багатьма іншими передовими функціями."
  },
  {
    "id": 9,
    "name": "Смартфон Xiaomi 13 Pro 12/256GB",
    "price": 46.399,
    "imageUrl": "https://content1.rozetka.com.ua/goods/images/big/358216786.jpg",
    "sku": "998877",
    "color": "Ceramic Black",
    "description": "Xiaomi 13 Pro - це потужний смартфон з чудовим дизайном, вражаючим дисплеєм, швидкою продуктивністю та високоякісною камерою для чудових знімків і відео."
  },
  {
    "id": 10,
    "name": "Смартфон Xiaomi 14 Ultra 16/512GB",
    "price": 62.852,
    "imageUrl": "https://content2.rozetka.com.ua/goods/images/big/430219716.jpg",
    "sku": "665544",
    "color": "White",
    "description": "Xiaomi 14 Ultra - це вражаючий смартфон з потужними характеристиками, великим дисплеєм, високоякісною камерою та продовженим часом роботи від акумулятора."
  },
  {
    "id": 11,
    "name": "Мобільний телефон Xiaomi 14 12/512GB",
    "price": 39.999,
    "imageUrl": "https://content1.rozetka.com.ua/goods/images/big/410510536.jpg",
    "sku": "6655444",
    "color": "Black",
    "description": "Xiaomi 14 - це потужний смартфон з вражаючим дизайном, великим дисплеєм, продуктивним процесором і багатьма іншими передовими функціями."
  }
]
